{
  "stats": {
    "suites": 1,
    "tests": 5,
    "passes": 5,
    "pending": 0,
    "failures": 0,
    "start": "2021-04-24T19:14:13.519Z",
    "end": "2021-04-24T19:14:25.169Z",
    "duration": 11650,
    "testsRegistered": 5,
    "passPercent": 100,
    "pendingPercent": 0,
    "other": 0,
    "hasOther": false,
    "skipped": 0,
    "hasSkipped": false
  },
  "results": [
    {
      "uuid": "5488475b-433e-4c12-8316-dbd072c1ab34",
      "title": "",
      "fullFile": "cypress/integration/addToCart.spec.js",
      "file": "cypress/integration/addToCart.spec.js",
      "beforeHooks": [],
      "afterHooks": [],
      "tests": [],
      "suites": [
        {
          "uuid": "97f0f46c-5e9e-4559-b5cd-9332f2702c01",
          "title": "Add to Cart",
          "fullFile": "",
          "file": "",
          "beforeHooks": [],
          "afterHooks": [],
          "tests": [
            {
              "title": "Check the title, url and links on the Landing Page",
              "fullTitle": "Add to Cart Check the title, url and links on the Landing Page",
              "timedOut": null,
              "duration": 5547,
              "state": "passed",
              "speed": "slow",
              "pass": true,
              "fail": false,
              "pending": false,
              "context": null,
              "code": "cy.verifyTitle();\ncy.verifyUrl();\ncy.verifyForPageToLoad();\ncy.contactLink();\ncy.loginLink();",
              "err": {},
              "uuid": "bf88b02d-4a02-4009-9d01-b10aa446a4bf",
              "parentUUID": "97f0f46c-5e9e-4559-b5cd-9332f2702c01",
              "isHook": false,
              "skipped": false
            },
            {
              "title": "click on 20% discount listed Item",
              "fullTitle": "Add to Cart click on 20% discount listed Item",
              "timedOut": null,
              "duration": 3415,
              "state": "passed",
              "speed": "slow",
              "pass": true,
              "fail": false,
              "pending": false,
              "context": null,
              "code": "cy.printedChiffonDress();\ncy.clickChiffonDress();",
              "err": {},
              "uuid": "3c07c1de-3889-4a66-8856-26bdb47aa6f2",
              "parentUUID": "97f0f46c-5e9e-4559-b5cd-9332f2702c01",
              "isHook": false,
              "skipped": false
            },
            {
              "title": "Check whether the Add to Cart Button is enabled and click product to add to Cart",
              "fullTitle": "Add to Cart Check whether the Add to Cart Button is enabled and click product to add to Cart",
              "timedOut": null,
              "duration": 1080,
              "state": "passed",
              "speed": "slow",
              "pass": true,
              "fail": false,
              "pending": false,
              "context": null,
              "code": "cy.clickAddToCart();",
              "err": {},
              "uuid": "d7da9e24-603f-49cc-9f6c-3b2636f26a08",
              "parentUUID": "97f0f46c-5e9e-4559-b5cd-9332f2702c01",
              "isHook": false,
              "skipped": false
            },
            {
              "title": "Verify whether the product added to Cart message is displayed",
              "fullTitle": "Add to Cart Verify whether the product added to Cart message is displayed",
              "timedOut": null,
              "duration": 1368,
              "state": "passed",
              "speed": "slow",
              "pass": true,
              "fail": false,
              "pending": false,
              "context": null,
              "code": "cy.cartSuccessMessage();\ncy.cartAddedMessage();",
              "err": {},
              "uuid": "4a431943-6f7b-4b82-9d72-ab8f45d92793",
              "parentUUID": "97f0f46c-5e9e-4559-b5cd-9332f2702c01",
              "isHook": false,
              "skipped": false
            },
            {
              "title": "Verify the product count from the Cart",
              "fullTitle": "Add to Cart Verify the product count from the Cart",
              "timedOut": null,
              "duration": 163,
              "state": "passed",
              "speed": "slow",
              "pass": true,
              "fail": false,
              "pending": false,
              "context": null,
              "code": "cy.cartCount();",
              "err": {},
              "uuid": "b5df3c16-5f10-4fb3-8b6c-4e9899d5e24b",
              "parentUUID": "97f0f46c-5e9e-4559-b5cd-9332f2702c01",
              "isHook": false,
              "skipped": false
            }
          ],
          "suites": [],
          "passes": [
            "bf88b02d-4a02-4009-9d01-b10aa446a4bf",
            "3c07c1de-3889-4a66-8856-26bdb47aa6f2",
            "d7da9e24-603f-49cc-9f6c-3b2636f26a08",
            "4a431943-6f7b-4b82-9d72-ab8f45d92793",
            "b5df3c16-5f10-4fb3-8b6c-4e9899d5e24b"
          ],
          "failures": [],
          "pending": [],
          "skipped": [],
          "duration": 11573,
          "root": false,
          "rootEmpty": false,
          "_timeout": 2000
        }
      ],
      "passes": [],
      "failures": [],
      "pending": [],
      "skipped": [],
      "duration": 0,
      "root": true,
      "rootEmpty": true,
      "_timeout": 2000
    }
  ],
  "meta": {
    "mocha": {
      "version": "7.0.1"
    },
    "mochawesome": {
      "options": {
        "quiet": false,
        "reportFilename": "mochawesome",
        "saveHtml": false,
        "saveJson": true,
        "consoleReporter": "spec",
        "useInlineDiffs": false,
        "code": true
      },
      "version": "6.2.2"
    },
    "marge": {
      "options": {
        "id": "default",
        "reportDir": "cypress/reports/mocha",
        "quite": true,
        "overwrite": false,
        "html": false,
        "json": true
      },
      "version": "5.2.0"
    }
  }
}