{
  "stats": {
    "suites": 1,
    "tests": 3,
    "passes": 3,
    "pending": 0,
    "failures": 0,
    "start": "2021-04-24T19:23:21.827Z",
    "end": "2021-04-24T19:23:32.017Z",
    "duration": 10190,
    "testsRegistered": 3,
    "passPercent": 100,
    "pendingPercent": 0,
    "other": 0,
    "hasOther": false,
    "skipped": 0,
    "hasSkipped": false
  },
  "results": [
    {
      "uuid": "7b6a7cd7-a65b-47b4-8874-2a97311839df",
      "title": "",
      "fullFile": "cypress/integration/checkTotalPrice.spec.js",
      "file": "cypress/integration/checkTotalPrice.spec.js",
      "beforeHooks": [],
      "afterHooks": [],
      "tests": [],
      "suites": [
        {
          "uuid": "27ec727c-ad08-44b0-b702-ad65e487051e",
          "title": "Add the product quantity as five to the cart and check the total price",
          "fullFile": "",
          "file": "",
          "beforeHooks": [],
          "afterHooks": [],
          "tests": [
            {
              "title": "Click on the 5th Product with 5% discount on the Landing Page",
              "fullTitle": "Add the product quantity as five to the cart and check the total price Click on the 5th Product with 5% discount on the Landing Page",
              "timedOut": null,
              "duration": 7064,
              "state": "passed",
              "speed": "slow",
              "pass": true,
              "fail": false,
              "pending": false,
              "context": null,
              "code": "cy.get(_locators.anchor).contains(_locators.printedSummerDress).should('be.visible');\ncy.get(_locators.anchor).contains(_locators.printedSummerDress).click();\ncy.get(_locators.anchorH).contains(_locators.printedSummerDress).should('be.visible');",
              "err": {},
              "uuid": "3f4d66df-a2be-4f73-bb63-a39277d57f22",
              "parentUUID": "27ec727c-ad08-44b0-b702-ad65e487051e",
              "isHook": false,
              "skipped": false
            },
            {
              "title": "Add quantity as 5 for the product",
              "fullTitle": "Add the product quantity as five to the cart and check the total price Add quantity as 5 for the product",
              "timedOut": null,
              "duration": 3046,
              "state": "passed",
              "speed": "slow",
              "pass": true,
              "fail": false,
              "pending": false,
              "context": null,
              "code": "cy.get(_locators.quantityWanted).clear();\ncy.get(_locators.quantityWanted).type(_locators.numberOfItems);\ncy.clickAddToCart();\ncy.cartSuccessMessage();\ncy.cartAddedMessage();\ncy.get(_locators.checkout).click();",
              "err": {},
              "uuid": "ebbe0ec4-03ce-487c-adeb-c478e2be7035",
              "parentUUID": "27ec727c-ad08-44b0-b702-ad65e487051e",
              "isHook": false,
              "skipped": false
            },
            {
              "title": "Check whether the Total price is accurate from the Cart",
              "fullTitle": "Add the product quantity as five to the cart and check the total price Check whether the Total price is accurate from the Cart",
              "timedOut": null,
              "duration": 46,
              "state": "passed",
              "speed": "medium",
              "pass": true,
              "fail": false,
              "pending": false,
              "context": null,
              "code": "cy.get(_locators.productPrice).invoke('text').should(textValue => {\n  expect(_locators.totalProductPrice).to.eq(textValue);\n});\ncy.get(_locators.priceTotal).invoke('text').should(textValue => {\n  expect(_locators.totalPriceWithTax).to.eq(textValue);\n});",
              "err": {},
              "uuid": "054fdf50-ee2c-485a-ada7-f6f35f518e62",
              "parentUUID": "27ec727c-ad08-44b0-b702-ad65e487051e",
              "isHook": false,
              "skipped": false
            }
          ],
          "suites": [],
          "passes": [
            "3f4d66df-a2be-4f73-bb63-a39277d57f22",
            "ebbe0ec4-03ce-487c-adeb-c478e2be7035",
            "054fdf50-ee2c-485a-ada7-f6f35f518e62"
          ],
          "failures": [],
          "pending": [],
          "skipped": [],
          "duration": 10156,
          "root": false,
          "rootEmpty": false,
          "_timeout": 2000
        }
      ],
      "passes": [],
      "failures": [],
      "pending": [],
      "skipped": [],
      "duration": 0,
      "root": true,
      "rootEmpty": true,
      "_timeout": 2000
    }
  ],
  "meta": {
    "mocha": {
      "version": "7.0.1"
    },
    "mochawesome": {
      "options": {
        "quiet": false,
        "reportFilename": "mochawesome",
        "saveHtml": false,
        "saveJson": true,
        "consoleReporter": "spec",
        "useInlineDiffs": false,
        "code": true
      },
      "version": "6.2.2"
    },
    "marge": {
      "options": {
        "id": "default",
        "reportDir": "cypress/reports/mocha",
        "quite": true,
        "overwrite": false,
        "html": false,
        "json": true
      },
      "version": "5.2.0"
    }
  }
}